{
    "page": 1,
    "per_page": 5,
    "photos": [
        {
            "id": 1141853,
            "width": 6000,
            "height": 3750,
            "url": "https://www.pexels.com/photo/golden-gate-bridge-san-francisco-california-1141853/",
            "photographer": "Tae Fuller",
            "photographer_url": "https://www.pexels.com/@tae-fuller-331517",
            "photographer_id": 331517,
            "avg_color": "#8A8586",
            "src": {
                "original": "https://images.pexels.com/photos/1141853/pexels-photo-1141853.jpeg",
                "large2x": "https://images.pexels.com/photos/1141853/pexels-photo-1141853.jpeg?auto=compress&cs=tinysrgb&dpr=2&h=650&w=940",
                "large": "https://images.pexels.com/photos/1141853/pexels-photo-1141853.jpeg?auto=compress&cs=tinysrgb&h=650&w=940",
                "medium": "https://images.pexels.com/photos/1141853/pexels-photo-1141853.jpeg?auto=compress&cs=tinysrgb&h=350",
                "small": "https://images.pexels.com/photos/1141853/pexels-photo-1141853.jpeg?auto=compress&cs=tinysrgb&h=130",
                "portrait": "https://images.pexels.com/photos/1141853/pexels-photo-1141853.jpeg?auto=compress&cs=tinysrgb&fit=crop&h=1200&w=800",
                "landscape": "https://images.pexels.com/photos/1141853/pexels-photo-1141853.jpeg?auto=compress&cs=tinysrgb&fit=crop&h=627&w=1200",
                "tiny": "https://images.pexels.com/photos/1141853/pexels-photo-1141853.jpeg?auto=compress&cs=tinysrgb&dpr=1&fit=crop&h=200&w=280"
            },
            "liked": false,
            "alt": "Golden Gate Bridge, San Francisco, California"
        },
        {
            "id": 208745,
            "width": 4838,
            "height": 3205,
            "url": "https://www.pexels.com/photo/america-architecture-bay-boat-208745/",
            "photographer": "Pixabay",
            "photographer_url": "https://www.pexels.com/@pixabay",
            "photographer_id": 2659,
            "avg_color": "#7699AA",
            "src": {
                "original": "https://images.pexels.com/photos/208745/pexels-photo-208745.jpeg",
                "large2x": "https://images.pexels.com/photos/208745/pexels-photo-208745.jpeg?auto=compress&cs=tinysrgb&dpr=2&h=650&w=940",
                "large": "https://images.pexels.com/photos/208745/pexels-photo-208745.jpeg?auto=compress&cs=tinysrgb&h=650&w=940",
                "medium": "https://images.pexels.com/photos/208745/pexels-photo-208745.jpeg?auto=compress&cs=tinysrgb&h=350",
                "small": "https://images.pexels.com/photos/208745/pexels-photo-208745.jpeg?auto=compress&cs=tinysrgb&h=130",
                "portrait": "https://images.pexels.com/photos/208745/pexels-photo-208745.jpeg?auto=compress&cs=tinysrgb&fit=crop&h=1200&w=800",
                "landscape": "https://images.pexels.com/photos/208745/pexels-photo-208745.jpeg?auto=compress&cs=tinysrgb&fit=crop&h=627&w=1200",
                "tiny": "https://images.pexels.com/photos/208745/pexels-photo-208745.jpeg?auto=compress&cs=tinysrgb&dpr=1&fit=crop&h=200&w=280"
            },
            "liked": false,
            "alt": "Golden Gate Bridge"
        },
        {
            "id": 258447,
            "width": 4078,
            "height": 3042,
            "url": "https://www.pexels.com/photo/view-of-city-street-258447/",
            "photographer": "Pixabay",
            "photographer_url": "https://www.pexels.com/@pixabay",
            "photographer_id": 2659,
            "avg_color": "#65655E",
            "src": {
                "original": "https://images.pexels.com/photos/258447/pexels-photo-258447.jpeg",
                "large2x": "https://images.pexels.com/photos/258447/pexels-photo-258447.jpeg?auto=compress&cs=tinysrgb&dpr=2&h=650&w=940",
                "large": "https://images.pexels.com/photos/258447/pexels-photo-258447.jpeg?auto=compress&cs=tinysrgb&h=650&w=940",
                "medium": "https://images.pexels.com/photos/258447/pexels-photo-258447.jpeg?auto=compress&cs=tinysrgb&h=350",
                "small": "https://images.pexels.com/photos/258447/pexels-photo-258447.jpeg?auto=compress&cs=tinysrgb&h=130",
                "portrait": "https://images.pexels.com/photos/258447/pexels-photo-258447.jpeg?auto=compress&cs=tinysrgb&fit=crop&h=1200&w=800",
                "landscape": "https://images.pexels.com/photos/258447/pexels-photo-258447.jpeg?auto=compress&cs=tinysrgb&fit=crop&h=627&w=1200",
                "tiny": "https://images.pexels.com/photos/258447/pexels-photo-258447.jpeg?auto=compress&cs=tinysrgb&dpr=1&fit=crop&h=200&w=280"
            },
            "liked": false,
            "alt": "View of City Street"
        },
        {
            "id": 1006965,
            "width": 2000,
            "height": 1333,
            "url": "https://www.pexels.com/photo/san-francisco-bridge-photo-1006965/",
            "photographer": "zoe pappas",
            "photographer_url": "https://www.pexels.com/@zoedoingthings",
            "photographer_id": 21045,
            "avg_color": "#4D5D5B",
            "src": {
                "original": "https://images.pexels.com/photos/1006965/pexels-photo-1006965.jpeg",
                "large2x": "https://images.pexels.com/photos/1006965/pexels-photo-1006965.jpeg?auto=compress&cs=tinysrgb&dpr=2&h=650&w=940",
                "large": "https://images.pexels.com/photos/1006965/pexels-photo-1006965.jpeg?auto=compress&cs=tinysrgb&h=650&w=940",
                "medium": "https://images.pexels.com/photos/1006965/pexels-photo-1006965.jpeg?auto=compress&cs=tinysrgb&h=350",
                "small": "https://images.pexels.com/photos/1006965/pexels-photo-1006965.jpeg?auto=compress&cs=tinysrgb&h=130",
                "portrait": "https://images.pexels.com/photos/1006965/pexels-photo-1006965.jpeg?auto=compress&cs=tinysrgb&fit=crop&h=1200&w=800",
                "landscape": "https://images.pexels.com/photos/1006965/pexels-photo-1006965.jpeg?auto=compress&cs=tinysrgb&fit=crop&h=627&w=1200",
                "tiny": "https://images.pexels.com/photos/1006965/pexels-photo-1006965.jpeg?auto=compress&cs=tinysrgb&dpr=1&fit=crop&h=200&w=280"
            },
            "liked": false,
            "alt": "San Francisco Bridge Photo"
        },
        {
            "id": 3584437,
            "width": 6000,
            "height": 4000,
            "url": "https://www.pexels.com/photo/city-skyline-during-golden-hour-3584437/",
            "photographer": "KEHN HERMANO",
            "photographer_url": "https://www.pexels.com/@brotherkehn",
            "photographer_id": 1963377,
            "avg_color": "#A99EA5",
            "src": {
                "original": "https://images.pexels.com/photos/3584437/pexels-photo-3584437.jpeg",
                "large2x": "https://images.pexels.com/photos/3584437/pexels-photo-3584437.jpeg?auto=compress&cs=tinysrgb&dpr=2&h=650&w=940",
                "large": "https://images.pexels.com/photos/3584437/pexels-photo-3584437.jpeg?auto=compress&cs=tinysrgb&h=650&w=940",
                "medium": "https://images.pexels.com/photos/3584437/pexels-photo-3584437.jpeg?auto=compress&cs=tinysrgb&h=350",
                "small": "https://images.pexels.com/photos/3584437/pexels-photo-3584437.jpeg?auto=compress&cs=tinysrgb&h=130",
                "portrait": "https://images.pexels.com/photos/3584437/pexels-photo-3584437.jpeg?auto=compress&cs=tinysrgb&fit=crop&h=1200&w=800",
                "landscape": "https://images.pexels.com/photos/3584437/pexels-photo-3584437.jpeg?auto=compress&cs=tinysrgb&fit=crop&h=627&w=1200",
                "tiny": "https://images.pexels.com/photos/3584437/pexels-photo-3584437.jpeg?auto=compress&cs=tinysrgb&dpr=1&fit=crop&h=200&w=280"
            },
            "liked": false,
            "alt": "City Skyline during Golden Hour"
        }
    ],
    "total_results": 1746,
    "next_page": "https://api.pexels.com/v1/search/?page=2&per_page=5&query=san+francisco"
}