{
    "page": 1,
    "per_page": 1,
    "photos": [
        {
            "id": 1141853,
            "width": 6000,
            "height": 3750,
            "url": "https://www.pexels.com/photo/golden-gate-bridge-san-francisco-california-1141853/",
            "photographer": "Tae Fuller",
            "photographer_url": "https://www.pexels.com/@tae-fuller-331517",
            "photographer_id": 331517,
            "avg_color": "#8A8586",
            "src": {
                "original": "https://images.pexels.com/photos/1141853/pexels-photo-1141853.jpeg",
                "large2x": "https://images.pexels.com/photos/1141853/pexels-photo-1141853.jpeg?auto=compress&cs=tinysrgb&dpr=2&h=650&w=940",
                "large": "https://images.pexels.com/photos/1141853/pexels-photo-1141853.jpeg?auto=compress&cs=tinysrgb&h=650&w=940",
                "medium": "https://images.pexels.com/photos/1141853/pexels-photo-1141853.jpeg?auto=compress&cs=tinysrgb&h=350",
                "small": "https://images.pexels.com/photos/1141853/pexels-photo-1141853.jpeg?auto=compress&cs=tinysrgb&h=130",
                "portrait": "https://images.pexels.com/photos/1141853/pexels-photo-1141853.jpeg?auto=compress&cs=tinysrgb&fit=crop&h=1200&w=800",
                "landscape": "https://images.pexels.com/photos/1141853/pexels-photo-1141853.jpeg?auto=compress&cs=tinysrgb&fit=crop&h=627&w=1200",
                "tiny": "https://images.pexels.com/photos/1141853/pexels-photo-1141853.jpeg?auto=compress&cs=tinysrgb&dpr=1&fit=crop&h=200&w=280"
            },
            "liked": false,
            "alt": "Golden Gate Bridge, San Francisco, California"
        }
    ],
    "total_results": 1746,
    "next_page": "https://api.pexels.com/v1/search/?page=2&per_page=1&query=San+Francisco"
}